{
	"ui":
	{
		"height": 600,
		"width": 1080
	},
	"camera":
	{
		"pos": [20, 30, 40],
		"rot": [-10, 12, 0]
	},
	"filter":
	{
		"border": "cartoon",
		"stereoscopy": "off",
		"color": "red",
		"post":  "off"
	},
	"texture":
	{
		"path":"assets/textures/bpp_tests/cube-grid_8.bmp",
		"path":"assets/textures/beton/beton_COLOR.bmp",
		"path":"assets/textures/wood/wood_NRM.bmp",
		"path":"assets/textures/wood/wood_SPEC.bmp"
	},
	"sphere":
	{
		"pos": [-10.1, -3, -60],
		"rot": [0, 0, 0],
		"color": [88, 66, 124, 255],
		"scl": [10, 10, 10],
		"spec": 50,
		"trans": 0.5,
		"refract": 1.01,
		"reflect": 0,
		"texture": -1,
		"bumpmapping": -1,
		"specmapping": -1
	},
	"cone":
	{
		"pos": [-17, 13, -20],
		"rot": [0, 44, 0],
		"scl": [0.5, 9, 1],
		"color": [0, 150, 150, 255],
		"spec": 50,
		"trans": 0,
		"refract": 1,
		"reflect": 0,
		"texture": -1,
		"bumpmapping": -1
	},
	"cylinder":
	{
		"pos": [10, 0, -90],
		"rot": [-45, 90, 45],
		"scl": [15, 45, -1],
		"color": [181, 105, 23, 255],
		"spec": 50,
		"trans": 0,
		"refract": 1,
		"reflect": 0,
		"texture": -1,
		"bumpmapping": -1
	},
	"plane":
	{
		"pos": [-119, -10, 0],
		"rot": [90, 0, 0],
		"scl": [0, 0, 0],
		"color": [155, 155, 0, 255],
		"spec": 50,
		"trans": 0,
		"refract": 1,
		"reflect": 0.5,
		"texture": -1,
		"texture scale": 30,
		"bumpmapping": 2,
		"specmapping": -1
	},
	"plane":
	{
		"pos": [-200, 0, 0],
		"rot": [0, 45, 0],
		"scl": [0, 0, 0],
		"color": [155, 0, 0, 255],
		"spec": 50,
		"trans": 0,
		"refract": 1,
		"reflect": 0.5,
		"texture": -1,
		"texture scale": 30,
		"bumpmapping": -1,
		"specmapping": -1
	},
	"light":
	{
		"pos": [20, 30, -50],
		"dir": [0, 0, 0],
		"color": [255, 255, 255],
		"intensity": 0.5
	}
}
