{
	"ui":
    {
		        "height": 600,
				        "width": 800
						    },
							    "camera":
								    {
										        "pos": [12.5, 0, 20],
												        "rot": [0, 10, 0]
														    },
															    "filter":
																    {
																		        "border": "antialiasing",
																				        "stereoscopy": "off",
																						        "color": "green",
																								        "post":  "off"
																										    },
																											    "texture":
																												    {
																														        "path":"assets/textures/mars/mars_COLOR.bmp",
																																        "path":"assets/textures/earth/earth_COLOR.bmp"
																													},																													"sphere":
																													    {
																															        "pos": [-10.1, -3, -60],
																																	        "rot": [0, 0, 0],
																																			        "color": [88, 66, 124, 255],
																																					        "scl": [10, 5, 1],
																																							        "spec": 50,
																																									        "trans": -1,
																																											        "refract": -1,
																																													        "reflect": -1,
																																															        "texture": 1,
																																																	        "bumpmapping": 1																								    },
																																																				    "sphere":
																																																					    {
																																																							        "pos": [13, 16, -65],																																																									        "color": [255, 255, 255, 255],																																																											        "scl": [2, 0, 0],
																																																													        "rot": [0, 0, 0],
																																																															        "spec": 50,
																																																																	        "bumpmapping": 0																																																},
			"light":
    {
         "pos": [0, -30, -30],
         "dir": [0, 0, 0],
         "color": [255, 255, 255],
         "intensity": 1
}
}
